{
    "@class": "com.kony.gen.viz.model.component.KVizLabel",
    "DNDConfig": null,
    "__parentReadjusting__": false,
    "_height_": {
        "type": "string",
        "value": "30dp"
    },
    "_left_": {
        "type": "string",
        "value": "10dp"
    },
    "_margin_": [
        1,
        1,
        1,
        1
    ],
    "_padding_": [
        2,
        0,
        0,
        0
    ],
    "_right_": {
        "type": "string",
        "value": "10dp"
    },
    "_skin_": "sc4aff6630dd4407bed44cac21c1bef0",
    "_text_": "Enter notes...",
    "_top_": {
        "type": "string",
        "value": "10dp"
    },
    "_wrapping_": 2,
    "android": {
        "textStyle": {
            "letterSpacing": 0,
            "strikeThrough": false
        }
    },
    "canUpdateUI": true,
    "containerweight": 100,
    "contentalignment": 4,
    "id": "PHtxtNotes",
    "info": null,
    "ipad": {
        "psp": {
            "wrapping": 2
        }
    },
    "iphone": {
        "psp": {
            "wrapping": 2
        }
    },
    "isvisible": true,
    "kuid": "5164bd67b7f04d3b9a041995761521fb",
    "name": "kony.ui.Label",
    "paddinginpixel": false,
    "parent": "flxPropertyNotes",
    "pf": "frmLead",
    "textstyle": {},
    "tooltip": "",
    "wType": "Label",
    "zindex": 1
}