{
    "@class": "com.kony.gen.viz.model.component.KVizLabel",
    "DNDConfig": null,
    "__parentReadjusting__": false,
    "_height_": {
        "type": "string",
        "value": "30dp"
    },
    "_left_": {
        "type": "string",
        "value": "140dp"
    },
    "_margin_": [
        1,
        1,
        1,
        1
    ],
    "_padding_": [
        2,
        0,
        0,
        0
    ],
    "_right_": {
        "type": "string",
        "value": "7dp"
    },
    "_skin_": "sc4aff6630dd4407bed44cac21c1bef0",
    "_text_": "Enter Account code",
    "_top_": {
        "type": "string",
        "value": "137dp"
    },
    "_wrapping_": 2,
    "android": {
        "textStyle": {
            "letterSpacing": 0,
            "strikeThrough": false
        }
    },
    "canUpdateUI": true,
    "containerweight": 100,
    "contentalignment": 4,
    "id": "PHtxtAccountCode",
    "info": null,
    "ipad": {
        "psp": {
            "wrapping": 2
        }
    },
    "iphone": {
        "psp": {
            "wrapping": 2
        }
    },
    "isvisible": false,
    "kuid": "7b4e9c28877d4f68a09b9b28612ffe57",
    "name": "kony.ui.Label",
    "paddinginpixel": false,
    "parent": "flxPropertyBasic",
    "pf": "frmLead",
    "textstyle": {},
    "tooltip": "",
    "wType": "Label",
    "zindex": 1
}