{
    "@class": "com.kony.gen.viz.model.component.KVizTextBox2",
    "DNDConfig": null,
    "__parentReadjusting__": false,
    "_height_": {
        "type": "string",
        "value": "30dp"
    },
    "_left_": {
        "type": "string",
        "value": "10dp"
    },
    "_margin_": [
        0,
        0,
        0,
        0
    ],
    "_padding_": [
        1,
        0,
        0,
        0
    ],
    "_placeholder_": "",
    "_right_": {
        "type": "string",
        "value": "10dp"
    },
    "_skin_": "s616dfb083034497ac7376cf5baec252",
    "_text_": "",
    "_top_": {
        "type": "string",
        "value": "131dp"
    },
    "autocapitalize": "sentences",
    "autocomplete": false,
    "autocorrect": false,
    "autofilter": false,
    "canUpdateUI": true,
    "containerheight": "",
    "containerheightmode": 1,
    "containerweight": 100,
    "contentalignment": 4,
    "id": "txtAddress5",
    "ide_onTextChange": "AS_TextField_652efe1e269946aebecf25ad5f90c800",
    "info": null,
    "isvisible": true,
    "keyboardtype": "A",
    "kuid": "c66e9ead92484924acb3cc7ec0c37db3",
    "mode": "A",
    "name": "kony.ui.TextBox2",
    "paddinginpixel": false,
    "parent": "flxPropertyAddress",
    "pf": "frmLead",
    "securetextentry": false,
    "textinputmode": "A",
    "viewtype": "default",
    "wType": "TextField",
    "zindex": 1
}