{
    "__parentReadjusting__": false,
    "_padding_": [
        0,
        0,
        0,
        0
    ],
    "_skin_": "s52beeeddf524afe8f26880d3dca1d73",
    "_srcKuid_": "750da83a7ce34d878bbedc9816156de1",
    "areflexpropsreferenced": true,
    "canUpdateUI": true,
    "children": [
        "flxBurgerTop",
        "flxBurgerBottom"
    ],
    "context": {},
    "dataDiffs": {
        "id": "flxBurgerMenuContentContainer"
    },
    "id": "flxBurgerMenuContentContainer",
    "instanceOf": "750da83a7ce34d878bbedc9816156de1",
    "isdatareferenced": true,
    "isvisible": true,
    "kuid": "m6733afab10b44aabcbe3e7feeba9cc9",
    "layouttype": 2,
    "masterInstance": true,
    "name": "kony.ui.FlexContainer",
    "parent": "flxBurgerMenu",
    "pf": "frmLeadManagement",
    "topLevelInstanceKUID": "ma43636bb2a1490ebff2c56bf25de68a",
    "wType": "FlexContainer"
}