{
    "__parentReadjusting__": false,
    "_padding_": [
        0,
        0,
        0,
        0
    ],
    "_skin_": "s2e16345800f40f392c381ea864144f3",
    "_srcKuid_": "20d01c67ab554a2290b652266bccacf1",
    "_top_": {
        "type": "string",
        "value": "75dp"
    },
    "areflexpropsreferenced": true,
    "canUpdateUI": true,
    "children": [
        "imgIcon1",
        "lblMenuName1"
    ],
    "context": {},
    "dataDiffs": {
        "id": "flxSettingsBtn1Container"
    },
    "id": "flxSettingsBtn1Container",
    "ide_onClick": "AS_FlexContainer_af64a02f7a1e486e92ee440e2d9b0248",
    "instanceOf": "20d01c67ab554a2290b652266bccacf1",
    "isdatareferenced": true,
    "isvisible": true,
    "kuid": "m30e0fa9e92b4bc7a9dc359b79273b26",
    "layouttype": 2,
    "masterInstance": true,
    "name": "kony.ui.FlexContainer",
    "parent": "flxBtmContainer",
    "pf": "frmLeadManagement",
    "topLevelInstanceKUID": "ma43636bb2a1490ebff2c56bf25de68a",
    "wType": "FlexContainer"
}