{
    "__parentReadjusting__": false,
    "_height_": {
        "type": "string",
        "value": "30dp"
    },
    "_left_": {
        "type": "string",
        "value": "18dp"
    },
    "_padding_": [
        0,
        0,
        0,
        0
    ],
    "_skin_": "sedecc5150fe4fd28b55fbf8ee7d634a",
    "_srcKuid_": "e45ef5aa45d5439196e58c39dd1d1958",
    "_top_": {
        "type": "string",
        "value": "50dp"
    },
    "_width_": {
        "type": "string",
        "value": "25dp"
    },
    "areflexpropsreferenced": true,
    "canUpdateUI": true,
    "context": {},
    "dataDiffs": {
        "id": "imgBurgerMenuInside"
    },
    "id": "imgBurgerMenuInside",
    "instanceOf": "e45ef5aa45d5439196e58c39dd1d1958",
    "isdatareferenced": true,
    "isvisible": true,
    "kuid": "m90d713c75f043eba6aab4e6c90bafd8",
    "masterInstance": true,
    "name": "kony.ui.Image2",
    "parent": "flxBurgerTop",
    "pf": "frmLeadManagement",
    "topLevelInstanceKUID": "ma43636bb2a1490ebff2c56bf25de68a",
    "wType": "Image"
}