{
    "__parentReadjusting__": false,
    "_padding_": [
        0,
        0,
        0,
        0
    ],
    "_skin_": "sedecc5150fe4fd28b55fbf8ee7d634a",
    "_srcKuid_": "bd9e025a3cb84324bf1ad803429480d9",
    "areflexpropsreferenced": true,
    "canUpdateUI": true,
    "context": {},
    "dataDiffs": {
        "id": "imgLead"
    },
    "id": "imgLead",
    "instanceOf": "bd9e025a3cb84324bf1ad803429480d9",
    "isdatareferenced": true,
    "isvisible": true,
    "kuid": "m2bd66f8d3004f2ea5c5c7d77d31d9c7",
    "masterInstance": true,
    "name": "kony.ui.Image2",
    "parent": "flxSettingBtn3Container",
    "pf": "frmLeadManagement",
    "topLevelInstanceKUID": "ma43636bb2a1490ebff2c56bf25de68a",
    "wType": "Image"
}