{
    "__parentReadjusting__": false,
    "_padding_": [
        0,
        0,
        0,
        0
    ],
    "_skin_": "sedecc5150fe4fd28b55fbf8ee7d634a",
    "_srcKuid_": "113aa9a8b67e41b8840888f8e34f7279",
    "areflexpropsreferenced": true,
    "canUpdateUI": true,
    "context": {},
    "dataDiffs": {
        "id": "imgUser"
    },
    "id": "imgUser",
    "instanceOf": "113aa9a8b67e41b8840888f8e34f7279",
    "isdatareferenced": true,
    "isvisible": true,
    "kuid": "mefa0064bdd041108c14ef95c9155bd1",
    "masterInstance": true,
    "name": "kony.ui.Image2",
    "parent": "FlexUserDetail",
    "pf": "frmLeadManagement",
    "topLevelInstanceKUID": "ma43636bb2a1490ebff2c56bf25de68a",
    "wType": "Image"
}