{
    "__parentReadjusting__": false,
    "_left_": {
        "type": "string",
        "value": "62dp"
    },
    "_padding_": [
        0,
        0,
        0,
        0
    ],
    "_skin_": "sbd180c7c9b740a69a448b3aa79ba464",
    "_srcKuid_": "818aad8711124cd9812fbf29f7961641",
    "areflexpropsreferenced": true,
    "canUpdateUI": true,
    "centery": {
        "type": "string",
        "value": "50%"
    },
    "context": {},
    "dataDiffs": {
        "id": "lblDeleteAll"
    },
    "id": "lblDeleteAll",
    "instanceOf": "818aad8711124cd9812fbf29f7961641",
    "isdatareferenced": true,
    "isvisible": true,
    "kuid": "mff8366a30d44c8f83fc7a8d10e996bf",
    "masterInstance": true,
    "name": "kony.ui.Label",
    "parent": "flxDeleteAll",
    "pf": "frmLeadManagement",
    "topLevelInstanceKUID": "ma43636bb2a1490ebff2c56bf25de68a",
    "wType": "Label"
}