{
    "__parentReadjusting__": false,
    "_padding_": [
        0,
        0,
        0,
        0
    ],
    "_skin_": "sbd180c7c9b740a69a448b3aa79ba464",
    "_srcKuid_": "63339a226a254015a8c48a319464b2e7",
    "areflexpropsreferenced": true,
    "canUpdateUI": true,
    "context": {},
    "dataDiffs": {
        "id": "lblMenuName4"
    },
    "id": "lblMenuName4",
    "instanceOf": "63339a226a254015a8c48a319464b2e7",
    "isdatareferenced": true,
    "isvisible": true,
    "kuid": "m6c82064a08248a3997130c126fd7387",
    "masterInstance": true,
    "name": "kony.ui.Label",
    "parent": "flexSettingBtn4Container",
    "pf": "frmLeadManagement",
    "topLevelInstanceKUID": "ma43636bb2a1490ebff2c56bf25de68a",
    "wType": "Label"
}