{
    "__parentReadjusting__": false,
    "_padding_": [
        0,
        0,
        0,
        0
    ],
    "_skin_": "sbd180c7c9b740a69a448b3aa79ba464",
    "_srcKuid_": "6b37e9bf61654637875b5616c8844f1f",
    "areflexpropsreferenced": true,
    "canUpdateUI": true,
    "context": {},
    "dataDiffs": {
        "id": "lblMenuName2"
    },
    "id": "lblMenuName2",
    "instanceOf": "6b37e9bf61654637875b5616c8844f1f",
    "isdatareferenced": true,
    "isvisible": true,
    "kuid": "m2583f0a0cd94ac686537b72cc1845df",
    "masterInstance": true,
    "name": "kony.ui.Label",
    "parent": "flxSettingsBtn2Container",
    "pf": "frmLeadManagement",
    "topLevelInstanceKUID": "ma43636bb2a1490ebff2c56bf25de68a",
    "wType": "Label"
}