{
    "@class": "com.kony.gen.viz.model.container.KVizHBox",
    "DNDConfig": null,
    "__valid__": true,
    "_margin_": [
        0,
        0,
        0,
        0
    ],
    "_orientation_": 1,
    "_padding_": [
        0,
        0,
        0,
        0
    ],
    "_percent_": true,
    "_position_": 3,
    "_skin_": "sd0d6bbe5f58436f90253390ed9552fc",
    "allboxes": [],
    "canUpdateUI": true,
    "children": [
        "btnOk"
    ],
    "containerweight": 100,
    "contextmenu": null,
    "id": "hbxButtonContainer",
    "info": null,
    "isvisible": true,
    "kuid": "d97fa0900bb34cc3a9199303f850ba36",
    "layouttype": 0,
    "name": "kony.ui.Box",
    "parent": "PopupMessageWithCallback",
    "pf": "PopupMessageWithCallback",
    "wType": "HBox",
    "widgetalignment": 1
}