{
 "appId": "67653bae-655f-4265-a5f3-704ebe42cbce",
 "baseId": "4db3ef33-716c-4ffe-9ba6-4f208f05ef3f",
 "name": "LeadsAndAlerts",
 "selflink": "https://100004898.auth.konycloud.com/appconfig",
 "integsvc": {
  "LALeads": "https://rentokil-initial-dev.konycloud.com/services/LALeads",
  "LAAlerts": "https://rentokil-initial-dev.konycloud.com/services/LAAlerts",
  "LALeadHistory": "https://rentokil-initial-dev.konycloud.com/services/LALeadHistory"
 },
 "sync": {
  "appId": "1000048984db3ef33",
  "url": "https://rentokil-initial-dev.sync.konycloud.com/syncservice/api/v1/1000048984db3ef33"
 },
 "reportingsvc": {
  "custom": "https://rentokil-initial-dev.konycloud.com/services/CMS",
  "session": "https://rentokil-initial-dev.konycloud.com/services/IST"
 },
 "services_meta": {
  "LALeads": {
   "version": "1.0",
   "url": "https://rentokil-initial-dev.konycloud.com/services/LALeads",
   "type": "integsvc"
  },
  "LAAlerts": {
   "version": "1.0",
   "url": "https://rentokil-initial-dev.konycloud.com/services/LAAlerts",
   "type": "integsvc"
  },
  "LALeadHistory": {
   "version": "1.0",
   "url": "https://rentokil-initial-dev.konycloud.com/services/LALeadHistory",
   "type": "integsvc"
  }
 }
}