{
    "DNDConfig": null,
    "_height_": {
        "type": "string",
        "value": "50dp"
    },
    "_margin_": [
        0,
        0,
        0,
        0
    ],
    "_orientation_": 6,
    "_padding_": [
        0,
        0,
        0,
        0
    ],
    "_percent_": true,
    "_skin_": "s52beeeddf524afe8f26880d3dca1d73",
    "allboxes": [],
    "autogrowmode": 0,
    "canUpdateUI": true,
    "children": [
        "lblDate",
        "lblStatus",
        "lblCustomer",
        "imgInfo"
    ],
    "clipbounds": true,
    "containerId": true,
    "containerweight": 100,
    "enablescrolling": true,
    "id": "flxSegRowContainer",
    "info": null,
    "isTemplate": true,
    "isvisible": true,
    "kuid": "161ca35b93aa418c8e3378fc752aa256",
    "layouttype": 2,
    "name": "kony.ui.FlexContainer",
    "parent": "tempSegLeadRow",
    "pf": "tempSegLeadRow",
    "snapgridsize": 10,
    "snaptogrid": true,
    "wType": "FlexContainer",
    "widgetalignment": 1
}