{
    "DNDConfig": null,
    "__parentReadjusting__": false,
    "_height_": {
        "type": "string",
        "value": "133dp"
    },
    "_left_": {
        "type": "string",
        "value": "0dp"
    },
    "_margin_": [
        0,
        0,
        0,
        0
    ],
    "_orientation_": 6,
    "_padding_": [
        0,
        0,
        0,
        0
    ],
    "_percent_": true,
    "_skin_": "sbba55cdd11241448501f260f5dfa2c6",
    "_top_": {
        "type": "string",
        "value": "0dp"
    },
    "_width_": {
        "type": "string",
        "value": "100%"
    },
    "allboxes": [],
    "autogrowmode": 0,
    "canUpdateUI": true,
    "childInstances": [
        "ma4f211228bc45afb1a1083380db714e",
        "me9c3fffc97a4a50be6f8fac1aab83b4",
        "m4cfe9848e0d477a9ee84218983629e3",
        "m4e086b983e34a61be894d5e9e16af94"
    ],
    "children": [
        "imgLogo",
        "imgBurgerMenuInside",
        "FlexUserDetail",
        "lblAppVersion"
    ],
    "clipbounds": true,
    "containerweight": 100,
    "enablescrolling": true,
    "id": "flxBurgerTop",
    "info": null,
    "isvisible": true,
    "kuid": "a8d9948434e544d0aa9854e9fdaa2e1c",
    "layouttype": 2,
    "name": "kony.ui.FlexContainer",
    "parent": "flxBurgerMenuContentContainer",
    "pf": "MasterBurgerMenu",
    "snapgridsize": 10,
    "snaptogrid": true,
    "wType": "FlexContainer",
    "widgetalignment": 1
}