{
    "DNDConfig": null,
    "__parentReadjusting__": false,
    "_height_": {
        "type": "string",
        "value": "35dp"
    },
    "_left_": {
        "type": "string",
        "value": "0dp"
    },
    "_margin_": [
        0,
        0,
        0,
        0
    ],
    "_orientation_": 6,
    "_padding_": [
        0,
        0,
        0,
        0
    ],
    "_percent_": true,
    "_skin_": "s2e16345800f40f392c381ea864144f3",
    "_top_": {
        "type": "string",
        "value": "15dp"
    },
    "_width_": {
        "type": "string",
        "value": "100%"
    },
    "allboxes": [],
    "autogrowmode": 0,
    "canUpdateUI": true,
    "childInstances": [
        "m9f1badb482a46c69848925e63d74ef4",
        "mdd94e78c5984e86ad9aebafd66a4864",
        "m65ab319b2864fe39e7bd31a6cd3c1c7",
        "mfe94766711a49b18070e161c0f222bf"
    ],
    "children": [
        "imgLead",
        "lblMenuName3"
    ],
    "clipbounds": true,
    "containerweight": 100,
    "enablescrolling": true,
    "id": "flxSettingBtn3Container",
    "info": null,
    "isvisible": true,
    "kuid": "5c99f168c634461d99dd0bf59bdfc4cb",
    "layouttype": 2,
    "name": "kony.ui.FlexContainer",
    "parent": "flxBtmContainer",
    "pf": "MasterBurgerMenu",
    "snapgridsize": 10,
    "snaptogrid": true,
    "wType": "FlexContainer",
    "widgetalignment": 1,
    "zindex": 1
}