{
    "@class": "com.kony.gen.viz.model.component.KVizImage2",
    "DNDConfig": null,
    "__parentReadjusting__": false,
    "_base64_": null,
    "_height_": {
        "type": "string",
        "value": "29dp"
    },
    "_left_": {
        "type": "string",
        "value": "18dp"
    },
    "_margin_": [
        0,
        0,
        0,
        0
    ],
    "_padding_": [
        0,
        0,
        0,
        0
    ],
    "_skin_": "sedecc5150fe4fd28b55fbf8ee7d634a",
    "_src_": "deleteall.png",
    "_width_": {
        "type": "string",
        "value": "29dp"
    },
    "canUpdateUI": true,
    "centery": {
        "type": "string",
        "value": "50%"
    },
    "childInstances": [
        "mee4970661d94b049a257d14c6ea6945",
        "mcaf930d20dc4b5192686a313dd1a72e",
        "mdc69914c08245ddb746a50f7dc82fe9",
        "m539e260e8c541f5ae2d47c64b010c4b"
    ],
    "containerweight": 100,
    "context": {
        "channel": "mobile",
        "formID": "MasterBurgerMenu",
        "platform": "android",
        "templateType": "masters",
        "topLevelBox": null
    },
    "id": "imgDeleteAll",
    "imagescalemode": 1,
    "info": null,
    "isvisible": true,
    "kuid": "3ebe1404ec304f6fba112214322c071c",
    "name": "kony.ui.Image2",
    "parent": "flxDeleteAll",
    "pf": "MasterBurgerMenu",
    "srcType": 1,
    "wType": "Image",
    "widgetalignment": 5
}