{
    "@class": "com.kony.gen.viz.model.component.KVizImage2",
    "DNDConfig": null,
    "__parentReadjusting__": false,
    "_base64_": null,
    "_height_": {
        "type": "string",
        "value": "29dp"
    },
    "_left_": {
        "type": "string",
        "value": "18dp"
    },
    "_margin_": [
        0,
        0,
        0,
        0
    ],
    "_padding_": [
        0,
        0,
        0,
        0
    ],
    "_skin_": "sedecc5150fe4fd28b55fbf8ee7d634a",
    "_src_": "brgrsettings.png",
    "_width_": {
        "type": "string",
        "value": "29dp"
    },
    "canUpdateUI": true,
    "centery": {
        "type": "string",
        "value": "50%"
    },
    "childInstances": [
        "mf7723835b804eaba0c44ca842c14954",
        "m8524df7085941e690ae9e6d1e84d496",
        "m873f99b53ec45e9a36e7399e4fcc00b",
        "mc6e654b39614b598b5a14e943396868"
    ],
    "containerweight": 100,
    "context": {
        "channel": "mobile",
        "formID": "MasterBurgerMenu",
        "platform": "android",
        "templateType": "masters",
        "topLevelBox": null
    },
    "id": "imgSupportViewSettings",
    "imagescalemode": 1,
    "info": null,
    "isvisible": true,
    "kuid": "81d09a38deda461391dd6bcd1f63c963",
    "name": "kony.ui.Image2",
    "parent": "flxSupportViewSetting",
    "pf": "MasterBurgerMenu",
    "srcType": 1,
    "wType": "Image",
    "widgetalignment": 5
}