{
    "@class": "com.kony.gen.viz.model.component.KVizLabel",
    "DNDConfig": null,
    "__parentReadjusting__": false,
    "_height_": {
        "type": "string",
        "value": "30dp"
    },
    "_left_": {
        "type": "string",
        "value": "62dp"
    },
    "_margin_": [
        1,
        1,
        1,
        1
    ],
    "_padding_": [
        0,
        0,
        0,
        0
    ],
    "_right_": {
        "type": "string",
        "value": "10dp"
    },
    "_skin_": "sbd180c7c9b740a69a448b3aa79ba464",
    "_text_": "Support",
    "_wrapping_": 2,
    "android": {
        "textStyle": {
            "letterSpacing": 0,
            "strikeThrough": false
        }
    },
    "canUpdateUI": true,
    "centery": {
        "type": "string",
        "value": "50%"
    },
    "childInstances": [
        "m2583f0a0cd94ac686537b72cc1845df",
        "m483bac6bc8a4c29b0c0eedbe7b5e438",
        "m0b2bf6578f342b5a175a326b1879a0a",
        "m14d2b28165f435592fe7e0227a4ce75"
    ],
    "containerweight": 100,
    "contentalignment": 4,
    "id": "lblMenuName2",
    "info": null,
    "ipad": {
        "psp": {
            "wrapping": 2
        }
    },
    "iphone": {
        "psp": {
            "wrapping": 2
        }
    },
    "isvisible": true,
    "kuid": "6b37e9bf61654637875b5616c8844f1f",
    "name": "kony.ui.Label",
    "parent": "flxSettingsBtn2Container",
    "pf": "MasterBurgerMenu",
    "tooltip": "",
    "wType": "Label",
    "zindex": 1
}