{
    "@class": "com.kony.gen.viz.model.container.KVizSegment2",
    "DNDConfig": null,
    "_data_": [
        [
            {
                "lblTitle": {
                    "@class": "com.viz.ide.model.segment.SimpleTextSegmentData",
                    "text": "Label"
                }
            },
            [
                {
                    "imgRadioBtnIcon": {
                        "@class": "com.viz.ide.model.segment.ImageSegmentData",
                        "src": "imagedrag.png"
                    },
                    "lblItem": {
                        "@class": "com.viz.ide.model.segment.SimpleTextSegmentData",
                        "text": "Label"
                    }
                },
                {
                    "imgRadioBtnIcon": {
                        "@class": "com.viz.ide.model.segment.ImageSegmentData",
                        "src": "imagedrag.png"
                    },
                    "lblItem": {
                        "@class": "com.viz.ide.model.segment.SimpleTextSegmentData",
                        "text": "Label"
                    }
                },
                {
                    "imgRadioBtnIcon": {
                        "@class": "com.viz.ide.model.segment.ImageSegmentData",
                        "src": "imagedrag.png"
                    },
                    "lblItem": {
                        "@class": "com.viz.ide.model.segment.SimpleTextSegmentData",
                        "text": "Label"
                    }
                }
            ]
        ],
        [
            {
                "lblTitle": {
                    "@class": "com.viz.ide.model.segment.SimpleTextSegmentData",
                    "text": "Label"
                }
            },
            [
                {
                    "imgRadioBtnIcon": {
                        "@class": "com.viz.ide.model.segment.ImageSegmentData",
                        "src": "imagedrag.png"
                    },
                    "lblItem": {
                        "@class": "com.viz.ide.model.segment.SimpleTextSegmentData",
                        "text": "Label"
                    }
                },
                {
                    "imgRadioBtnIcon": {
                        "@class": "com.viz.ide.model.segment.ImageSegmentData",
                        "src": "imagedrag.png"
                    },
                    "lblItem": {
                        "@class": "com.viz.ide.model.segment.SimpleTextSegmentData",
                        "text": "Label"
                    }
                },
                {
                    "imgRadioBtnIcon": {
                        "@class": "com.viz.ide.model.segment.ImageSegmentData",
                        "src": "imagedrag.png"
                    },
                    "lblItem": {
                        "@class": "com.viz.ide.model.segment.SimpleTextSegmentData",
                        "text": "Label"
                    }
                }
            ]
        ]
    ],
    "_indicator_": "none",
    "_margin_": [
        0,
        0,
        0,
        0
    ],
    "_orientation_": 2,
    "_padding_": [
        0,
        0,
        0,
        0
    ],
    "canUpdateUI": true,
    "containerweight": 100,
    "counter": "12",
    "focusedindex": null,
    "focuseditem": null,
    "groupcells": false,
    "hasSections": true,
    "id": "segSettingsList",
    "ide_onRowClick": "AS_Segment_8e3d65e7fadb47eb9ca75d2535d45e23",
    "info": null,
    "ipad": {
        "psp": {
            "indicator": "rowselect"
        }
    },
    "iphone": {
        "psp": {
            "indicator": "rowselect"
        }
    },
    "isvisible": true,
    "kuid": "a9b1d89647e4462ba2db748bbe0169fe",
    "masterdata": {},
    "name": "kony.ui.SegmentedUI2",
    "needpageindicator": true,
    "pageoffdotimage": "pageoffdot.png",
    "pageondotimage": "pageondot.png",
    "paginationconfig": {
        "position": "bottom"
    },
    "parent": "vbxSettingsContentContainer",
    "pf": "PopupSettings",
    "retainselection": false,
    "rowTemplateId": "8f8f33a02e4643ddb41871d938cb198f",
    "rowcounter": 2,
    "rowfocusskin": "s234c248182640ddb0edca060d217210",
    "rowskin": "s88e2401ff124d5999071dd84482fa17",
    "rowtemplate": "hbxRowSegSelectionList",
    "screenlevelwidget": false,
    "seccounter": 1,
    "sectionHeaderTemplateId": "f18fceac329c435298faa18aecf6ef63",
    "sectionheaderskin": "sc503cf4a9c24a44b61fe16a02277e63",
    "sectionheadertemplate": "hbxHeaderSegSelectionList",
    "selectedRows": null,
    "selectedState": false,
    "selectedindex": null,
    "selectedindices": null,
    "selecteditems": null,
    "selectedsectionindex": 0,
    "selectionbehavior": "default",
    "separatorcolor": "64646400",
    "separatorrequired": true,
    "separatorthickness": 1,
    "showscrollbars": false,
    "viewtype": "tableview",
    "wType": "Segment",
    "widgetalignment": 5,
    "widgetdatamap": {
        "hbxHeaderSegSelectionList": "hbxHeaderSegSelectionList",
        "hbxRowSegSelectionList": "hbxRowSegSelectionList",
        "imgRadioBtnIcon": "imgRadioBtnIcon",
        "lblItem": "lblItem",
        "lblTitle": "lblTitle"
    }
}