{
    "@class": "com.kony.gen.viz.model.container.KVizVBox",
    "DNDConfig": null,
    "__valid__": true,
    "_margin_": [
        0,
        0,
        0,
        0
    ],
    "_orientation_": 2,
    "_padding_": [
        0,
        10,
        0,
        10
    ],
    "_percent_": true,
    "_position_": 3,
    "_skin_": "sf544f19d9304c1f98919e30346d9da1",
    "allboxes": [],
    "canUpdateUI": true,
    "children": [],
    "containerweight": 4,
    "contextmenu": null,
    "donotUpdateContainerWeight": false,
    "id": "vbxCenter",
    "info": null,
    "isvisible": true,
    "kuid": "220c45da94334f0783dcf093010c0a8b",
    "layouttype": 0,
    "margininpixel": false,
    "name": "kony.ui.Box",
    "paddInPixel": [
        0,
        0,
        0,
        0
    ],
    "paddinginpixel": false,
    "parent": "hbxFooterContainer",
    "pf": "PopupSettings",
    "wType": "VBox",
    "widgetalignment": 1
}