{
  "background_color": "ed1c24ff",
  "bg_type": "one",
  "border_color": "000000ff",
  "border_style": "plain",
  "border_type": 0,
  "border_width": 0,
  "isDefaultSkin": false,
  "kuid": "s32db7f6834b4a68ae5d8cd03505c91d",
  "wType": "FlexContainer"
}