{
  "android": {
    "background_color": {
      "angle": 90,
      "colors": [
        "000000ff",
        "ffffff00",
        "000000ff",
        "000000e6",
        "000000cc",
        "00000066",
        "0000004d",
        "00000033",
        "0000001a"
      ],
      "cs": [
        0,
        59,
        66,
        70,
        74,
        82,
        86,
        90,
        94
      ],
      "gradientType": "toRight",
      "gt": "linear"
    },
    "background_style": "linear",
    "bg_type": "ms_gradient",
    "isForked": true
  },
  "background_color": "ffffffff",
  "bg_type": "one",
  "border_color": "000000ff",
  "border_style": "plain",
  "border_type": 0,
  "border_width": 0,
  "desktopweb": {
    "background_color": {
      "angle": 90,
      "colors": [
        "000000ff",
        "ffffff00",
        "000000ff",
        "000000e6",
        "000000cc",
        "00000066",
        "0000004d",
        "00000033",
        "0000001a"
      ],
      "cs": [
        0,
        59,
        66,
        70,
        74,
        82,
        86,
        90,
        94
      ],
      "gradientType": "toRight",
      "gt": "linear"
    },
    "background_style": "linear",
    "bg_type": "ms_gradient",
    "bottom_left_border_color": "000000ff",
    "bottom_left_border_style": "plain",
    "bottom_left_border_width": 0,
    "bottom_right_border_color": "000000ff",
    "bottom_right_border_style": "plain",
    "bottom_right_border_width": 0,
    "isForked": true,
    "top_left_border_color": "000000ff",
    "top_left_border_style": "plain",
    "top_left_border_width": 0,
    "top_right_border_color": "000000ff",
    "top_right_border_style": "plain",
    "top_right_border_width": 0
  },
  "ipad": {
    "background_color": {
      "angle": 90,
      "colors": [
        "000000ff",
        "ffffff00",
        "000000ff",
        "000000e6",
        "000000cc",
        "00000066",
        "0000004d",
        "00000033",
        "0000001a"
      ],
      "cs": [
        0,
        59,
        66,
        70,
        74,
        82,
        86,
        90,
        94
      ],
      "gradientType": "toRight",
      "gt": "linear"
    },
    "background_style": "linear",
    "bg_type": "ms_gradient",
    "isForked": true
  },
  "iphone": {
    "background_color": {
      "angle": 90,
      "colors": [
        "000000ff",
        "ffffff00",
        "000000ff",
        "000000e6",
        "000000cc",
        "00000066",
        "0000004d",
        "00000033",
        "0000001a"
      ],
      "cs": [
        0,
        59,
        66,
        70,
        74,
        82,
        86,
        90,
        94
      ],
      "gradientType": "toRight",
      "gt": "linear"
    },
    "background_style": "linear",
    "bg_type": "ms_gradient",
    "isForked": true
  },
  "isDefaultSkin": false,
  "kiosk": {
    "background_color": {
      "angle": 90,
      "colors": [
        "000000ff",
        "ffffff00",
        "000000ff",
        "000000e6",
        "000000cc",
        "00000066",
        "0000004d",
        "00000033",
        "0000001a"
      ],
      "cs": [
        0,
        59,
        66,
        70,
        74,
        82,
        86,
        90,
        94
      ],
      "gradientType": "toRight",
      "gt": "linear"
    },
    "background_style": "linear",
    "bg_type": "ms_gradient",
    "isForked": true
  },
  "kuid": "sb6e790a10654de09baaba64cbb4edf9",
  "spaan": {
    "background_color": {
      "angle": 90,
      "colors": [
        "000000ff",
        "ffffff00",
        "000000ff",
        "000000e6",
        "000000cc",
        "00000066",
        "0000004d",
        "00000033",
        "0000001a"
      ],
      "cs": [
        0,
        59,
        66,
        70,
        74,
        82,
        86,
        90,
        94
      ],
      "gradientType": "toRight",
      "gt": "linear"
    },
    "background_style": "linear",
    "bg_type": "ms_gradient",
    "bottom_left_border_color": "000000ff",
    "bottom_left_border_style": "plain",
    "bottom_left_border_width": 0,
    "bottom_right_border_color": "000000ff",
    "bottom_right_border_style": "plain",
    "bottom_right_border_width": 0,
    "isForked": true,
    "top_left_border_color": "000000ff",
    "top_left_border_style": "plain",
    "top_left_border_width": 0,
    "top_right_border_color": "000000ff",
    "top_right_border_style": "plain",
    "top_right_border_width": 0
  },
  "spaandroidtablet": {
    "background_color": {
      "angle": 90,
      "colors": [
        "000000ff",
        "ffffff00",
        "000000ff",
        "000000e6",
        "000000cc",
        "00000066",
        "0000004d",
        "00000033",
        "0000001a"
      ],
      "cs": [
        0,
        59,
        66,
        70,
        74,
        82,
        86,
        90,
        94
      ],
      "gradientType": "toRight",
      "gt": "linear"
    },
    "background_style": "linear",
    "bg_type": "ms_gradient",
    "bottom_left_border_color": "000000ff",
    "bottom_left_border_style": "plain",
    "bottom_left_border_width": 0,
    "bottom_right_border_color": "000000ff",
    "bottom_right_border_style": "plain",
    "bottom_right_border_width": 0,
    "isForked": true,
    "top_left_border_color": "000000ff",
    "top_left_border_style": "plain",
    "top_left_border_width": 0,
    "top_right_border_color": "000000ff",
    "top_right_border_style": "plain",
    "top_right_border_width": 0
  },
  "spabb": {
    "background_color": {
      "angle": 90,
      "colors": [
        "000000ff",
        "ffffff00",
        "000000ff",
        "000000e6",
        "000000cc",
        "00000066",
        "0000004d",
        "00000033",
        "0000001a"
      ],
      "cs": [
        0,
        59,
        66,
        70,
        74,
        82,
        86,
        90,
        94
      ],
      "gradientType": "toRight",
      "gt": "linear"
    },
    "background_style": "linear",
    "bg_type": "ms_gradient",
    "bottom_left_border_color": "000000ff",
    "bottom_left_border_style": "plain",
    "bottom_left_border_width": 0,
    "bottom_right_border_color": "000000ff",
    "bottom_right_border_style": "plain",
    "bottom_right_border_width": 0,
    "isForked": true,
    "top_left_border_color": "000000ff",
    "top_left_border_style": "plain",
    "top_left_border_width": 0,
    "top_right_border_color": "000000ff",
    "top_right_border_style": "plain",
    "top_right_border_width": 0
  },
  "spaip": {
    "background_color": {
      "angle": 90,
      "colors": [
        "000000ff",
        "ffffff00",
        "000000ff",
        "000000e6",
        "000000cc",
        "00000066",
        "0000004d",
        "00000033",
        "0000001a"
      ],
      "cs": [
        0,
        59,
        66,
        70,
        74,
        82,
        86,
        90,
        94
      ],
      "gradientType": "toRight",
      "gt": "linear"
    },
    "background_style": "linear",
    "bg_type": "ms_gradient",
    "bottom_left_border_color": "000000ff",
    "bottom_left_border_style": "plain",
    "bottom_left_border_width": 0,
    "bottom_right_border_color": "000000ff",
    "bottom_right_border_style": "plain",
    "bottom_right_border_width": 0,
    "isForked": true,
    "top_left_border_color": "000000ff",
    "top_left_border_style": "plain",
    "top_left_border_width": 0,
    "top_right_border_color": "000000ff",
    "top_right_border_style": "plain",
    "top_right_border_width": 0
  },
  "spaipad": {
    "background_color": {
      "angle": 90,
      "colors": [
        "000000ff",
        "ffffff00",
        "000000ff",
        "000000e6",
        "000000cc",
        "00000066",
        "0000004d",
        "00000033",
        "0000001a"
      ],
      "cs": [
        0,
        59,
        66,
        70,
        74,
        82,
        86,
        90,
        94
      ],
      "gradientType": "toRight",
      "gt": "linear"
    },
    "background_style": "linear",
    "bg_type": "ms_gradient",
    "bottom_left_border_color": "000000ff",
    "bottom_left_border_style": "plain",
    "bottom_left_border_width": 0,
    "bottom_right_border_color": "000000ff",
    "bottom_right_border_style": "plain",
    "bottom_right_border_width": 0,
    "isForked": true,
    "top_left_border_color": "000000ff",
    "top_left_border_style": "plain",
    "top_left_border_width": 0,
    "top_right_border_color": "000000ff",
    "top_right_border_style": "plain",
    "top_right_border_width": 0
  },
  "spawindowstablet": {
    "background_color": {
      "angle": 90,
      "colors": [
        "000000ff",
        "ffffff00",
        "000000ff",
        "000000e6",
        "000000cc",
        "00000066",
        "0000004d",
        "00000033",
        "0000001a"
      ],
      "cs": [
        0,
        59,
        66,
        70,
        74,
        82,
        86,
        90,
        94
      ],
      "gradientType": "toRight",
      "gt": "linear"
    },
    "background_style": "linear",
    "bg_type": "ms_gradient",
    "bottom_left_border_color": "000000ff",
    "bottom_left_border_style": "plain",
    "bottom_left_border_width": 0,
    "bottom_right_border_color": "000000ff",
    "bottom_right_border_style": "plain",
    "bottom_right_border_width": 0,
    "isForked": true,
    "top_left_border_color": "000000ff",
    "top_left_border_style": "plain",
    "top_left_border_width": 0,
    "top_right_border_color": "000000ff",
    "top_right_border_style": "plain",
    "top_right_border_width": 0
  },
  "spawinphone8": {
    "background_color": {
      "angle": 90,
      "colors": [
        "000000ff",
        "ffffff00",
        "000000ff",
        "000000e6",
        "000000cc",
        "00000066",
        "0000004d",
        "00000033",
        "0000001a"
      ],
      "cs": [
        0,
        59,
        66,
        70,
        74,
        82,
        86,
        90,
        94
      ],
      "gradientType": "toRight",
      "gt": "linear"
    },
    "background_style": "linear",
    "bg_type": "ms_gradient",
    "bottom_left_border_color": "000000ff",
    "bottom_left_border_style": "plain",
    "bottom_left_border_width": 0,
    "bottom_right_border_color": "000000ff",
    "bottom_right_border_style": "plain",
    "bottom_right_border_width": 0,
    "isForked": true,
    "top_left_border_color": "000000ff",
    "top_left_border_style": "plain",
    "top_left_border_width": 0,
    "top_right_border_color": "000000ff",
    "top_right_border_style": "plain",
    "top_right_border_width": 0
  },
  "tabrcandroid": {
    "background_color": {
      "angle": 90,
      "colors": [
        "000000ff",
        "ffffff00",
        "000000ff",
        "000000e6",
        "000000cc",
        "00000066",
        "0000004d",
        "00000033",
        "0000001a"
      ],
      "cs": [
        0,
        59,
        66,
        70,
        74,
        82,
        86,
        90,
        94
      ],
      "gradientType": "toRight",
      "gt": "linear"
    },
    "background_style": "linear",
    "bg_type": "ms_gradient",
    "isForked": true
  },
  "wType": "FlexContainer",
  "windows8": {
    "background_color": {
      "angle": 90,
      "colors": [
        "000000ff",
        "ffffff00",
        "000000ff",
        "000000e6",
        "000000cc",
        "00000066",
        "0000004d",
        "00000033",
        "0000001a"
      ],
      "cs": [
        0,
        59,
        66,
        70,
        74,
        82,
        86,
        90,
        94
      ],
      "gradientType": "toRight",
      "gt": "linear"
    },
    "background_style": "linear",
    "bg_type": "ms_gradient",
    "isForked": true
  },
  "winphone8": {
    "background_color": {
      "angle": 90,
      "colors": [
        "000000ff",
        "ffffff00",
        "000000ff",
        "000000e6",
        "000000cc",
        "00000066",
        "0000004d",
        "00000033",
        "0000001a"
      ],
      "cs": [
        0,
        59,
        66,
        70,
        74,
        82,
        86,
        90,
        94
      ],
      "gradientType": "toRight",
      "gt": "linear"
    },
    "background_style": "linear",
    "bg_type": "ms_gradient",
    "isForked": true
  }
}