{
    "__parentReadjusting__": false,
    "_padding_": [
        0,
        0,
        0,
        0
    ],
    "_skin_": "scf15b1fcf3a470e97ed2a7fcf7af868",
    "_srcKuid_": "394d4f1d0d644ef0889cab5101589681",
    "canUpdateUI": true,
    "context": {},
    "dataDiffs": {
        "centerY": {
            "type": "string",
            "value": "50%"
        },
        "height": {
            "type": "string",
            "value": "40dp"
        },
        "id": "btnBurgerMenu",
        "left": {
            "type": "string",
            "value": "5dp"
        },
        "text": "",
        "width": {
            "type": "string",
            "value": "40dp"
        },
        "zIndex": 1
    },
    "id": "btnBurgerMenu",
    "ide_onClick": "AS_Button_9e53bcf3b5f140b3929043d5d01b647b",
    "instanceOf": "394d4f1d0d644ef0889cab5101589681",
    "isvisible": true,
    "kuid": "m39e51dd6fb94b66864470335b7864ea",
    "masterInstance": true,
    "name": "kony.ui.Button",
    "parent": "flxFormHeader",
    "pf": "frmAlert",
    "topLevelInstanceKUID": "mb6d464fa5d14f5a98c89047b51a8794",
    "wType": "Button"
}