{
    "__parentReadjusting__": false,
    "_padding_": [
        0,
        0,
        0,
        0
    ],
    "_skin_": "sadec6829353436592a2ca893b646499",
    "_srcKuid_": "b9f184061a3b4da4b9a466f0d95e081f",
    "canUpdateUI": true,
    "context": {},
    "dataDiffs": {
        "centerY": {
            "type": "string",
            "value": "50%"
        },
        "height": {
            "type": "string",
            "value": "30dp"
        },
        "id": "lblHeaderTitle",
        "left": {
            "type": "string",
            "value": "50dp"
        },
        "right": {
            "type": "string",
            "value": "10dp"
        },
        "text": "Create Alert"
    },
    "id": "lblHeaderTitle",
    "instanceOf": "b9f184061a3b4da4b9a466f0d95e081f",
    "isvisible": true,
    "kuid": "m6778b90323844d8bfbe42d13e70a172",
    "masterInstance": true,
    "name": "kony.ui.Label",
    "parent": "flxFormHeader",
    "pf": "frmAlert",
    "topLevelInstanceKUID": "mb6d464fa5d14f5a98c89047b51a8794",
    "wType": "Label"
}