{
    "@class": "com.kony.gen.viz.model.component.KVizImage2",
    "DNDConfig": null,
    "_base64_": null,
    "_margin_": [
        1,
        1,
        1,
        1
    ],
    "_padding_": [
        0,
        0,
        0,
        0
    ],
    "_skin_": "sf41c054ddd949cc98737e8ad6da5b60",
    "_src_": "loadingone.png",
    "canUpdateUI": true,
    "containerweight": 100,
    "context": {
        "channel": "mobile",
        "ispercent": true,
        "platform": "android",
        "templateType": "popups",
        "topLevelBox": false
    },
    "id": "imgLoading",
    "imagescalemode": 1,
    "info": null,
    "invokedProperty": "src",
    "ispercent": true,
    "isvisible": true,
    "kuid": "1f7c6399cadf408582556af01a46f371",
    "margininpixel": false,
    "name": "kony.ui.Image2",
    "parent": "hbxProgressIndicatorContainer",
    "pf": "PopupProgress",
    "srcType": 1,
    "wType": "Image",
    "widgetalignment": 5
}