{
    "@class": "com.kony.gen.viz.model.container.KVizHBox",
    "DNDConfig": null,
    "__valid__": true,
    "_margin_": [
        0,
        0,
        0,
        0
    ],
    "_orientation_": 1,
    "_padding_": [
        0,
        0,
        0,
        0
    ],
    "_percent_": true,
    "_position_": 3,
    "_skin_": "sef1258b2fde4795bf6df2e6ff69df06",
    "allboxes": [],
    "canUpdateUI": true,
    "children": [
        "lblMessage"
    ],
    "containerweight": 100,
    "contextmenu": null,
    "id": "hbxContentContainer",
    "info": null,
    "isvisible": true,
    "kuid": "8af60f3a285d43bb8902d00256e29408",
    "layouttype": 0,
    "name": "kony.ui.Box",
    "parent": "PopupConfirmation",
    "pf": "PopupConfirmation",
    "wType": "HBox",
    "widgetalignment": 1
}