{
    "AS_FlexContainer_f9b3bafdef6b49e5ab49b7c08b0c064b": {
        "id": "AS_FlexContainer_f9b3bafdef6b49e5ab49b7c08b0c064b",
        "type": "ACTION_SEQUENCE",
        "params": [{
            "datatype": "collection",
            "name": "eventobject"
        }],
        "contextObj": {
            "name": "MasterBurgerMenu",
            "type": "masters",
            "KUID": "476dcdf0998a4e3b942149794d0bf39b"
        },
        "language": "js",
        "actions": [{
            "id": "INVOKE_FUNCTION___af5f8065d404448cb66881b6606ad8d2",
            "type": "INVOKE_FUNCTION",
            "sequenceKUID": "onClickMenuBtn",
            "display": "onClickMenuBtn",
            "inputparams": [{
                "name": "evntIdentifier"
            }],
            "parentId": null,
            "callbackType": null,
            "source": "module"
        }]
    }
}