{
    "@class": "com.kony.gen.viz.model.container.KVizForm",
    "DNDConfig": null,
    "_margin_": [
        0,
        0,
        0,
        0
    ],
    "_orientation_": 1,
    "_padding_": [
        0,
        0,
        0,
        0
    ],
    "_percent_": true,
    "_skin_": "s3ac323580684402a32c9c4cbf1eaa04",
    "_title_": null,
    "addWidgetsdone": false,
    "allboxes": [],
    "canUpdateUI": true,
    "children": [
        "hbxHeaderContainer",
        "hbxContentContainer",
        "hbxFooterContainer"
    ],
    "containerweight": 80,
    "currentLocale": "en_GB",
    "desktopweb": {
        "psp": {
            "titleBarConfig": {
                "closeIcon": "close.png",
                "maxIcon": "max.png",
                "minIcon": "min.png"
            }
        }
    },
    "device": "GalaxyS5",
    "displayorientation": 3,
    "enabledforidletimeout": false,
    "id": "PopupAlertMsg",
    "info": null,
    "initdone": false,
    "inputaccessoryviewtype": 4,
    "ismodal": true,
    "isvisible": true,
    "kuid": "c5a9a36cfc5a459ab7bb97f19c17885f",
    "name": "kony.ui.Popup",
    "paddinginpixel": false,
    "platform": "android",
    "prevDevice": "iPhone6",
    "prevPlatform": "iphone",
    "retainscrollposition": false,
    "shellCSS": "and_GalaxyS5",
    "titlebar": true,
    "transparencybehindthepopup": 60,
    "wType": "Popup"
}