{
    "@class": "com.kony.gen.viz.model.component.KVizLabel",
    "DNDConfig": null,
    "__parentReadjusting__": false,
    "_height_": {
        "type": "string",
        "value": "22dp"
    },
    "_left_": {
        "type": "string",
        "value": "10dp"
    },
    "_margin_": [
        1,
        1,
        1,
        1
    ],
    "_padding_": [
        0,
        0,
        0,
        0
    ],
    "_right_": {
        "type": "string",
        "value": "10dp"
    },
    "_skin_": "se245d2d995848fb92bbe347ed2850a1",
    "_text_": "Customer Name:",
    "_top_": {
        "type": "string",
        "value": "10dp"
    },
    "_wrapping_": 2,
    "android": {
        "textStyle": {
            "letterSpacing": 0,
            "strikeThrough": false
        }
    },
    "canUpdateUI": true,
    "containerweight": 100,
    "contentalignment": 4,
    "id": "lblPropertyName",
    "info": null,
    "ipad": {
        "psp": {
            "wrapping": 2
        }
    },
    "iphone": {
        "psp": {
            "wrapping": 2
        }
    },
    "isvisible": true,
    "kuid": "1911ce31781b4fef95283c3a1a74c5db",
    "maxnumberoflines": 1,
    "name": "kony.ui.Label",
    "parent": "flxPropertyBasic",
    "pf": "frmAlert",
    "textstyle": {},
    "texttruncateposition": 3,
    "tooltip": "",
    "wType": "Label"
}