{
    "@class": "com.kony.gen.viz.model.component.KVizButton",
    "DNDConfig": null,
    "__valid__": true,
    "_margin_": [
        0,
        0,
        0,
        0
    ],
    "_padding_": [
        4,
        4,
        4,
        4
    ],
    "_skin_": "s779eb4980984b67ac3cb5e535dd5500",
    "_text_": "Button",
    "canUpdateUI": true,
    "containerweight": 100,
    "contentalignment": 5,
    "displaytext": true,
    "focusskin": "s779eb4980984b67ac3cb5e535dd5500",
    "id": "btnCancelEmail",
    "ide_onClick": "AS_Button_a916f23cd0464776a2d512c7e6478f21",
    "info": null,
    "isvisible": true,
    "kuid": "576c7c876b3d490195fd2d3b2bd9993d",
    "margininpixel": false,
    "name": "kony.ui.Button",
    "paddInPixel": [
        17.16,
        17.16,
        17.16,
        17.16
    ],
    "paddinginpixel": false,
    "parent": "vbxLeft",
    "pf": "PopupChangeEmail",
    "vexpand": true,
    "wType": "Button"
}