{
    "@class": "com.kony.gen.viz.model.container.KVizHBox",
    "DNDConfig": null,
    "__valid__": true,
    "_margin_": [
        0,
        0,
        0,
        0
    ],
    "_orientation_": 1,
    "_padding_": [
        0,
        0,
        0,
        0
    ],
    "_percent_": true,
    "_position_": 3,
    "_skin_": "sd0d6bbe5f58436f90253390ed9552fc",
    "allboxes": [],
    "canUpdateUI": true,
    "children": [
        "lblMessage"
    ],
    "containerweight": 100,
    "contextmenu": null,
    "id": "hbxEmailErrContentContainer",
    "info": null,
    "isvisible": true,
    "kuid": "d9f8b1a26f4047da8a04e45e5b998e4b",
    "layouttype": 0,
    "name": "kony.ui.Box",
    "parent": "PopupChangeEmail",
    "pf": "PopupChangeEmail",
    "wType": "HBox",
    "widgetalignment": 1
}