{
    "@class": "com.kony.gen.viz.model.container.KVizHBox",
    "DNDConfig": null,
    "__valid__": true,
    "_margin_": [
        0,
        0,
        0,
        0
    ],
    "_orientation_": 1,
    "_padding_": [
        2,
        1,
        2,
        1
    ],
    "_percent_": true,
    "_position_": 3,
    "_skin_": "sfaab4414f6a48f0ab7895532d8f6e46",
    "allboxes": [],
    "canUpdateUI": true,
    "children": [
        "lblEmailListTitle"
    ],
    "containerweight": 100,
    "contextmenu": null,
    "id": "hbxHeaderContainer",
    "info": null,
    "isvisible": true,
    "kuid": "ae2543cbc7b9430d944cfd4f4f1ac9ba",
    "layouttype": 0,
    "name": "kony.ui.Box",
    "paddinginpixel": false,
    "parent": "PopupChangeEmail",
    "pf": "PopupChangeEmail",
    "wType": "HBox",
    "widgetalignment": 1
}