{
    "AS_NamedActions_5c89c41f3c5d4aa1aac4d92d9ba8cfbf": {
        "id": "AS_NamedActions_5c89c41f3c5d4aa1aac4d92d9ba8cfbf",
        "type": "ACTION_SEQUENCE",
        "name": "ActionOnTextChange",
        "params": [],
        "language": "js",
        "actions": [{
            "id": "INVOKE_FUNCTION___ba20e166778048889f82372574f6647a",
            "type": "INVOKE_FUNCTION",
            "sequenceKUID": "onTextChangeOnInputField",
            "display": "onTextChangeOnInputField",
            "inputparams": [{
                "name": "widgetRef"
            }],
            "parentId": null,
            "callbackType": null,
            "disabled": null,
            "source": "module"
        }]
    }
}