{
    "AS_Button_1a649f5941a14eb3b3caaa259d5e65c1": {
        "id": "AS_Button_1a649f5941a14eb3b3caaa259d5e65c1",
        "type": "ACTION_SEQUENCE",
        "name": "ActionAlertMsgPopupBtnOk",
        "params": [{
            "datatype": "collection",
            "name": "eventobject"
        }],
        "contextObj": {
            "name": "PopupAlertMsg",
            "type": "popups",
            "platform": null,
            "KUID": "c5a9a36cfc5a459ab7bb97f19c17885f"
        },
        "language": "js",
        "actions": [{
            "id": "INVOKE_FUNCTION__ide_onClick_0210e498b5a14d70b1490b6ac92387ea",
            "type": "INVOKE_FUNCTION",
            "sequenceKUID": "dismissAlertMessagePopup",
            "display": "dismissAlertMessagePopup",
            "inputparams": [],
            "callbackType": null,
            "disabled": null,
            "source": "module"
        }]
    }
}