{
    "AS_Form_ff503a36a4974df5ac59e1f58cafcbef": {
        "id": "AS_Form_ff503a36a4974df5ac59e1f58cafcbef",
        "type": "ACTION_SEQUENCE",
        "name": "ActionLeadPostshow",
        "params": [{
            "datatype": "collection",
            "name": "eventobject"
        }],
        "contextObj": {
            "name": "frmLead",
            "type": "forms",
            "platform": "",
            "KUID": "392c405c0db24d7d9fb8f1d9c8840928"
        },
        "language": "js",
        "actions": [{
            "id": "INVOKE_FUNCTION___bbf4c3baae3341bea5ee30d4758d7623",
            "type": "INVOKE_FUNCTION",
            "sequenceKUID": "onPostShowLead",
            "display": "onPostShowLead",
            "inputparams": [],
            "parentId": null,
            "callbackType": null,
            "source": "module"
        }]
    }
}