{
    "AS_Button_4e5c71a550384062a5e56b1de01b2008": {
        "id": "AS_Button_4e5c71a550384062a5e56b1de01b2008",
        "type": "ACTION_SEQUENCE",
        "name": "ActionEmailConfirmation",
        "params": [{
            "datatype": "collection",
            "name": "eventobject"
        }],
        "contextObj": {
            "name": "PopupChangeEmail",
            "type": "popups",
            "platform": "",
            "KUID": "6cfdd43711d34353a3d0f8eed6d78df5"
        },
        "language": "js",
        "actions": [{
            "id": "NAMED_ACTION____7ac58352bd384d8082cf8be48bd9b93d",
            "type": "NAMED_ACTION",
            "sequenceKUID": "AS_Button_13c5f75a92d04ffca1aab4dd3c2a4222",
            "display": "ActionEmailConfirmBtn",
            "inputparams": [{
                "datatype": "collection",
                "name": "eventobject"
            }],
            "parentId": null,
            "callbackType": null,
            "disabled": null,
            "isMasterInstanceAction": null
        }]
    }
}