{
    "AS_FlexContainer_79c9eb0a6b094be682cb3edf451bf3ba": {
        "id": "AS_FlexContainer_79c9eb0a6b094be682cb3edf451bf3ba",
        "type": "ACTION_SEQUENCE",
        "name": "ActionToShowAlertScreen",
        "params": [{
            "datatype": "collection",
            "name": "eventobject"
        }],
        "contextObj": {
            "name": "frmLeadManagement",
            "type": "forms",
            "platform": "",
            "KUID": "d3f0a2025e2c4066bcad5fa9bd8ada0f"
        },
        "sourceObj": {
            "itemKUID": "476dcdf0998a4e3b942149794d0bf39b",
            "widgetKUID": "700c7c4ab38549548fa47a460e6d788b",
            "evt": "onClick"
        },
        "language": "js",
        "actions": [{
            "id": "INVOKE_FUNCTION___a52d59388c244d77b25098012ec86d55",
            "type": "INVOKE_FUNCTION",
            "sequenceKUID": "showCreateAlert",
            "display": "showCreateAlert",
            "inputparams": [],
            "parentId": null,
            "callbackType": null,
            "disabled": null,
            "source": "module"
        }]
    }
}