{
    "AS_Form_27c700dd87fc4f36a9357677cca8da52": {
        "id": "AS_Form_27c700dd87fc4f36a9357677cca8da52",
        "type": "ACTION_SEQUENCE",
        "name": "ActionLeadManagementPreshow",
        "params": [{
            "datatype": "collection",
            "name": "eventobject"
        }],
        "contextObj": {
            "name": "frmLeadManagement",
            "type": "forms",
            "platform": "",
            "KUID": "d3f0a2025e2c4066bcad5fa9bd8ada0f"
        },
        "language": "js",
        "actions": [{
            "id": "INVOKE_FUNCTION___0768e132a89d4507a357b133b53cf682",
            "type": "INVOKE_FUNCTION",
            "sequenceKUID": "onPreShowLeadManagement",
            "display": "onPreShowLeadManagement",
            "inputparams": [],
            "parentId": null,
            "callbackType": null,
            "source": "module"
        }]
    }
}