{
    "AS_NamedActions_6d55ca9006834170b1bed62262a21e0f": {
        "id": "AS_NamedActions_6d55ca9006834170b1bed62262a21e0f",
        "type": "ACTION_SEQUENCE",
        "name": "ActionOnMessagePopupOkBtn",
        "params": [],
        "language": "js",
        "actions": [{
            "id": "INVOKE_FUNCTION___06351e0ac440424b875a758dc13be5e8",
            "type": "INVOKE_FUNCTION",
            "sequenceKUID": "onClickMessagePopupOkButton",
            "display": "onClickMessagePopupOkButton",
            "inputparams": [],
            "parentId": null,
            "callbackType": null,
            "disabled": null,
            "source": "module"
        }]
    }
}