{
    "AS_NamedActions_df60ad8c88254f39baba447d7f5f5e23": {
        "id": "AS_NamedActions_df60ad8c88254f39baba447d7f5f5e23",
        "type": "ACTION_SEQUENCE",
        "name": "ActionApplicationBecomesForeground",
        "params": [],
        "language": "js",
        "actions": [{
            "id": "INVOKE_FUNCTION___a720951917cf484f92db2a24dd696e47",
            "type": "INVOKE_FUNCTION",
            "sequenceKUID": "onAppBecomesForeground",
            "display": "onAppBecomesForeground",
            "inputparams": [],
            "parentId": null,
            "callbackType": null,
            "source": "module"
        }]
    }
}