{
    "AS_Button_a916f23cd0464776a2d512c7e6478f21": {
        "id": "AS_Button_a916f23cd0464776a2d512c7e6478f21",
        "type": "ACTION_SEQUENCE",
        "name": "ActionEmailCancelBtn",
        "params": [{
            "datatype": "collection",
            "name": "eventobject"
        }],
        "contextObj": {
            "name": "Login",
            "type": "forms",
            "platform": "",
            "KUID": "1888d1cfe469424c9af00b85ca273810"
        },
        "language": "js",
        "actions": [{
            "id": "INVOKE_FUNCTION___3d006d300cd640f2bffb5d6de205d0fd",
            "type": "INVOKE_FUNCTION",
            "sequenceKUID": "onClickEmailCancelButton",
            "display": "onClickEmailCancelButton",
            "inputparams": [],
            "parentId": null,
            "callbackType": null,
            "source": "module"
        }]
    }
}