{
    "AS_NamedActions_6187fea103ac4bbea6398ededdd78e44": {
        "id": "AS_NamedActions_6187fea103ac4bbea6398ededdd78e44",
        "type": "ACTION_SEQUENCE",
        "name": "ActionPopupMessageOk",
        "params": [],
        "language": "js",
        "actions": [{
            "id": "INVOKE_FUNCTION___0ea5d513c944487eaa2787c5a6b6f9bc",
            "type": "INVOKE_FUNCTION",
            "sequenceKUID": "dismissMessagePopup",
            "display": "dismissMessagePopup",
            "inputparams": [],
            "parentId": null,
            "callbackType": null,
            "source": "module"
        }]
    }
}