{
    "AS_Button_a052f93002584abda9b4b77312a9ac18": {
        "id": "AS_Button_a052f93002584abda9b4b77312a9ac18",
        "type": "ACTION_SEQUENCE",
        "name": "ActionShowSettingsFromLead",
        "params": [{
            "datatype": "collection",
            "name": "eventobject"
        }],
        "contextObj": {
            "name": "frmLead",
            "type": "forms",
            "platform": "",
            "KUID": "392c405c0db24d7d9fb8f1d9c8840928"
        },
        "sourceObj": {
            "itemKUID": "6e7d135a7d6b4df69470210955e5c5fe",
            "widgetKUID": "394d4f1d0d644ef0889cab5101589681",
            "evt": "onClick"
        },
        "language": "js",
        "actions": [{
            "id": "NAMED_ACTION____152d4fbf126049dd8d39bb223418f280",
            "type": "NAMED_ACTION",
            "sequenceKUID": "AS_Button_b77431849b1e4065a6f24dba1aedf9bc",
            "display": "ActionShowSettingsSideMenu",
            "inputparams": [{
                "datatype": "collection",
                "name": "eventobject"
            }],
            "parentId": null,
            "callbackType": null,
            "disabled": null,
            "isMasterInstanceAction": null
        }]
    }
}