{
    "AS_Segment_404deaea0f60475fb50715ebc72d4e48": {
        "id": "AS_Segment_404deaea0f60475fb50715ebc72d4e48",
        "type": "ACTION_SEQUENCE",
        "name": "ActionSegEmailClick",
        "params": [{
            "datatype": "collection",
            "name": "eventobject"
        }, {
            "datatype": "number",
            "name": "sectionNumber"
        }, {
            "datatype": "number",
            "name": "rowNumber"
        }],
        "language": "js",
        "actions": [{
            "id": "INVOKE_FUNCTION__ide_onRowClick_d6ba1c9b4cd7400ab5d398d87168374e",
            "type": "INVOKE_FUNCTION",
            "sequenceKUID": "onEmailListRowClick",
            "display": "onEmailListRowClick",
            "inputparams": [],
            "source": "module"
        }]
    }
}