{
    "AS_NamedActions_ac0f5b894f5848a5a313a5e4a1e8fea7": {
        "id": "AS_NamedActions_ac0f5b894f5848a5a313a5e4a1e8fea7",
        "type": "ACTION_SEQUENCE",
        "name": "ActionEmailListRowClick",
        "params": [],
        "language": "js",
        "actions": [{
            "id": "INVOKE_FUNCTION___f7387093774646369c8a0e9089913774",
            "type": "INVOKE_FUNCTION",
            "sequenceKUID": "onEmailListRowClick",
            "display": "onEmailListRowClick",
            "inputparams": [],
            "parentId": null,
            "callbackType": null,
            "source": "module"
        }]
    }
}