{
    "AS_FlexContainer_f5c9a532d27a411b869c063b89cab076": {
        "id": "AS_FlexContainer_f5c9a532d27a411b869c063b89cab076",
        "type": "ACTION_SEQUENCE",
        "name": "ActionCloseSettingsFromLeadManagement",
        "params": [{
            "datatype": "collection",
            "name": "eventobject"
        }],
        "contextObj": {
            "name": "frmLeadManagement",
            "type": "forms",
            "platform": "",
            "KUID": "d3f0a2025e2c4066bcad5fa9bd8ada0f"
        },
        "sourceObj": {
            "itemKUID": "476dcdf0998a4e3b942149794d0bf39b",
            "widgetKUID": "mfb2d08ef57644b5b65462fd81bc3242",
            "evt": "onClick"
        },
        "language": "js",
        "actions": [{
            "id": "NAMED_ACTION____1a25bb8fb4ed4b55961ff94efb28cceb",
            "type": "NAMED_ACTION",
            "sequenceKUID": "AS_FlexContainer_a794260711b3442ba717feb8145bd28c",
            "display": "ActionCloseSettingsSideMenu",
            "inputparams": [{
                "datatype": "collection",
                "name": "eventobject"
            }],
            "parentId": null,
            "callbackType": null,
            "disabled": null,
            "isMasterInstanceAction": null
        }]
    }
}