{
    "AS_Button_37467b0f93a9426baf740b803c954446": {
        "id": "AS_Button_37467b0f93a9426baf740b803c954446",
        "type": "ACTION_SEQUENCE",
        "name": "ActionTodismissPopup",
        "params": [{
            "datatype": "collection",
            "name": "eventobject"
        }],
        "contextObj": {
            "name": "PopupMessage",
            "type": "popups",
            "platform": "",
            "KUID": "2aef6a75e9344fbda3a3880574b24be1"
        },
        "language": "js",
        "actions": [{
            "id": "INVOKE_FUNCTION___4db2ace40f1f457f822f4212464c68e8",
            "type": "INVOKE_FUNCTION",
            "sequenceKUID": "dismissMessagePopup",
            "display": "dismissMessagePopup",
            "inputparams": [],
            "parentId": null,
            "callbackType": null,
            "disabled": null,
            "source": "module"
        }]
    }
}