{
    "AS_Button_d901506de5e54de3adb69ef5ad48ce48": {
        "id": "AS_Button_d901506de5e54de3adb69ef5ad48ce48",
        "type": "ACTION_SEQUENCE",
        "name": "ActionToResend",
        "params": [{
            "datatype": "collection",
            "name": "eventobject"
        }],
        "contextObj": {
            "name": "SupportView",
            "type": "forms",
            "platform": "",
            "KUID": "0b96142e40174302a07d435f8dd625aa"
        },
        "language": "js",
        "actions": [{
            "id": "INVOKE_FUNCTION___2b2bc95779e44d84a5d57ad14204dfa7",
            "type": "INVOKE_FUNCTION",
            "sequenceKUID": "onClickbtnResend",
            "display": "onClickbtnResend",
            "inputparams": [],
            "parentId": null,
            "callbackType": null,
            "disabled": null,
            "source": "module"
        }]
    }
}