{
    "AS_Button_ca7b15ff0ab246c7a3d55cb07a853f51": {
        "id": "AS_Button_ca7b15ff0ab246c7a3d55cb07a853f51",
        "type": "ACTION_SEQUENCE",
        "name": "ActionEmialErrOkAction",
        "params": [{
            "datatype": "collection",
            "name": "eventobject"
        }],
        "language": "js",
        "actions": [{
            "id": "INVOKE_FUNCTION__ide_onClick_20e9e158abec450ca965e07ed52aae40",
            "type": "INVOKE_FUNCTION",
            "sequenceKUID": "dismissEmailErrorPopup",
            "display": "dismissEmailErrorPopup",
            "inputparams": [],
            "callbackType": null,
            "disabled": null,
            "source": "module"
        }]
    }
}