{
    "AS_AppEvents_8bb73458eec94cf8bd3a0d996ead7064": {
        "id": "AS_AppEvents_8bb73458eec94cf8bd3a0d996ead7064",
        "type": "ACTION_SEQUENCE",
        "name": "AppServiceLeadsAndAlerts",
        "params": [{
            "name": "params",
            "datatype": "string"
        }],
        "language": "js",
        "actions": [{
            "id": "ADD_SNIPPET__dc497593443041df9c8870e9d3b467e4",
            "type": "ADD_SNIPPET",
            "codeSnippet": "return appserviceHandler(params);",
            "parentId": null,
            "callbackType": null
        }]
    }
}