{
    "AS_AppEvents_321a77b01d264087968fe3852ad23a27": {
        "id": "AS_AppEvents_321a77b01d264087968fe3852ad23a27",
        "type": "ACTION_SEQUENCE",
        "name": "AppServiceLead",
        "params": [{
            "name": "params",
            "datatype": "string"
        }],
        "language": "js",
        "actions": [{
            "id": "ADD_SNIPPET__3075320ab9fe413f912012603a8191db",
            "type": "ADD_SNIPPET",
            "codeSnippet": "return appserviceHandler(params)",
            "parentId": null,
            "callbackType": null
        }]
    }
}