{
    "AS_FlexContainer_9c53055d21f04819b6990f1d8b8d098d": {
        "id": "AS_FlexContainer_9c53055d21f04819b6990f1d8b8d098d",
        "type": "ACTION_SEQUENCE",
        "params": [{
            "datatype": "collection",
            "name": "eventobject"
        }],
        "contextObj": {
            "name": "frmLead",
            "type": "forms",
            "platform": "",
            "KUID": "392c405c0db24d7d9fb8f1d9c8840928"
        },
        "sourceObj": {
            "itemKUID": "476dcdf0998a4e3b942149794d0bf39b",
            "widgetKUID": "811ea130b8e64ec7961af42b6b01763b",
            "evt": "onClick",
            "platform": null
        },
        "language": "js",
        "actions": []
    }
}