{
    "AS_FlexContainer_dc66d99325c54720827ae3fcf4d339b5": {
        "id": "AS_FlexContainer_dc66d99325c54720827ae3fcf4d339b5",
        "type": "ACTION_SEQUENCE",
        "params": [{
            "datatype": "collection",
            "name": "eventobject"
        }],
        "contextObj": {
            "name": "frmLead",
            "type": "forms",
            "platform": "",
            "KUID": "392c405c0db24d7d9fb8f1d9c8840928"
        },
        "sourceObj": {
            "itemKUID": "476dcdf0998a4e3b942149794d0bf39b",
            "widgetKUID": "mfb2d08ef57644b5b65462fd81bc3242",
            "evt": "onClick"
        },
        "language": "js",
        "actions": [{
            "id": "NAMED_ACTION____2557204f98a54ac2b62981f551fd83a7",
            "type": "NAMED_ACTION",
            "sequenceKUID": "AS_FlexContainer_1b0281ffacac46519e11fc3cc7d0a1cc",
            "display": "ActionCloseSettingsFromLead",
            "inputparams": [{
                "datatype": "collection",
                "name": "eventobject"
            }],
            "parentId": null,
            "callbackType": null,
            "disabled": null,
            "isMasterInstanceAction": null
        }]
    }
}