{
    "AS_FlexContainer_1536465df1724da688e0de7dd0d9b3bc": {
        "id": "AS_FlexContainer_1536465df1724da688e0de7dd0d9b3bc",
        "type": "ACTION_SEQUENCE",
        "params": [{
            "datatype": "collection",
            "name": "eventobject"
        }],
        "contextObj": {
            "name": "frmAlert",
            "type": "forms",
            "platform": "",
            "KUID": "9a41368ab9e24100b33533cfbfcb4454"
        },
        "sourceObj": {
            "itemKUID": "476dcdf0998a4e3b942149794d0bf39b",
            "widgetKUID": "20d01c67ab554a2290b652266bccacf1",
            "evt": "onClick",
            "platform": null
        },
        "language": "js",
        "actions": [{
            "id": "NAMED_ACTION____b49dc17caf6748588bb3cbb149f8821b",
            "type": "NAMED_ACTION",
            "sequenceKUID": "AS_NamedActions_3574455dd326457bb77b93da325a5cea",
            "display": "ActionBurgerMenuSettingsButton",
            "inputparams": [],
            "parentId": null,
            "callbackType": null,
            "disabled": null,
            "isMasterInstanceAction": null
        }]
    }
}