{
    "AS_TextField_a9618570f6b540b2b61d37aa2bd9a32f": {
        "id": "AS_TextField_a9618570f6b540b2b61d37aa2bd9a32f",
        "type": "ACTION_SEQUENCE",
        "params": [{
            "datatype": "collection",
            "name": "eventobject"
        }, {
            "datatype": "string",
            "name": "changedtext"
        }],
        "language": "js",
        "actions": [{
            "id": "INVOKE_FUNCTION__ide_onTextChange_ae13202c4f1e43108b53dcb23847b4fb",
            "type": "INVOKE_FUNCTION",
            "sequenceKUID": "onTextChangeOnInputField",
            "display": "onTextChangeOnInputField",
            "inputparams": [{
                "name": "widgetRef"
            }],
            "callbackType": null,
            "source": "module"
        }]
    }
}