{
    "AS_FlexContainer_9c55e038cdf94fd58cc607aba31699f1": {
        "id": "AS_FlexContainer_9c55e038cdf94fd58cc607aba31699f1",
        "type": "ACTION_SEQUENCE",
        "name": "AvtionShowSupportViewFmAlert",
        "params": [{
            "datatype": "collection",
            "name": "eventobject"
        }],
        "contextObj": {
            "name": "frmAlert",
            "type": "forms",
            "platform": "",
            "KUID": "9a41368ab9e24100b33533cfbfcb4454"
        },
        "sourceObj": {
            "itemKUID": "476dcdf0998a4e3b942149794d0bf39b",
            "widgetKUID": "811ea130b8e64ec7961af42b6b01763b",
            "evt": "onClick",
            "platform": null
        },
        "language": "js",
        "actions": [{
            "id": "INVOKE_FUNCTION___cb8307e216fd406fbe1bca5f13e25f1c",
            "type": "INVOKE_FUNCTION",
            "sequenceKUID": "showSupportViewForm",
            "display": "showSupportViewForm",
            "inputparams": [],
            "parentId": null,
            "callbackType": null,
            "disabled": null,
            "source": "module"
        }]
    }
}