{
    "AS_AppEvents_9430bd1c0e4c4c69ba5e1eaf8820c4f8": {
        "id": "AS_AppEvents_9430bd1c0e4c4c69ba5e1eaf8820c4f8",
        "type": "ACTION_SEQUENCE",
        "name": "LeadAlertAppService",
        "params": [{
            "datatype": "collection",
            "name": "eventobject"
        }],
        "language": "js",
        "actions": [{
            "id": "NAMED_ACTION____ff7b2a7ed48d47d8b959ba8217e507ce",
            "type": "NAMED_ACTION",
            "sequenceKUID": "AS_AppEvents_211dbd88c7bf40d4a62f1913e7d8513a",
            "display": "leadAppService",
            "inputparams": [{
                "name": "params",
                "datatype": "string"
            }],
            "parentId": null,
            "callbackType": null,
            "disabled": null,
            "isMasterInstanceAction": null
        }]
    }
}