{
    "__parentReadjusting__": false,
    "_left_": {
        "type": "string",
        "value": "0dp"
    },
    "_padding_": [
        0,
        0,
        0,
        0
    ],
    "_skin_": "s2e16345800f40f392c381ea864144f3",
    "_srcKuid_": "700c7c4ab38549548fa47a460e6d788b",
    "_top_": {
        "type": "string",
        "value": "4dp"
    },
    "areflexpropsreferenced": true,
    "canUpdateUI": true,
    "children": [
        "imgAlert",
        "lblMenuName4"
    ],
    "context": {},
    "dataDiffs": {
        "id": "flexSettingBtn4Container"
    },
    "id": "flexSettingBtn4Container",
    "ide_onClick": "AS_FlexContainer_87d800160bd94342af8621c1dabb83e8",
    "instanceOf": "700c7c4ab38549548fa47a460e6d788b",
    "isdatareferenced": true,
    "isvisible": true,
    "kuid": "mf317f4251004cef9d51794d172a852b",
    "layouttype": 2,
    "masterInstance": true,
    "name": "kony.ui.FlexContainer",
    "parent": "flxBtmContainer",
    "pf": "frmLead",
    "topLevelInstanceKUID": "meff4df5e4924fccbafd7371044004a4",
    "wType": "FlexContainer"
}