{
    "__parentReadjusting__": false,
    "_padding_": [
        0,
        0,
        0,
        0
    ],
    "_skin_": "sbba55cdd11241448501f260f5dfa2c6",
    "_srcKuid_": "2bb15a5f505d441f97d4a5f24d80e40a",
    "_top_": {
        "type": "string",
        "value": "133dp"
    },
    "areflexpropsreferenced": true,
    "canUpdateUI": true,
    "children": [
        "flxBtmContainer",
        "flxMasterSupportView",
        "lblLastTransferred"
    ],
    "context": {},
    "dataDiffs": {
        "id": "flxBurgerBottom"
    },
    "id": "flxBurgerBottom",
    "instanceOf": "2bb15a5f505d441f97d4a5f24d80e40a",
    "isdatareferenced": true,
    "isvisible": true,
    "kuid": "ma08859809dd47d78aaa9bdff27671cb",
    "layouttype": 2,
    "masterInstance": true,
    "name": "kony.ui.FlexContainer",
    "parent": "flxBurgerMenuContentContainer",
    "pf": "frmLead",
    "topLevelInstanceKUID": "meff4df5e4924fccbafd7371044004a4",
    "wType": "FlexContainer"
}