{
    "_height_": {
        "type": "string",
        "value": "35dp"
    },
    "_left_": {
        "type": "string",
        "value": "0dp"
    },
    "_skin_": "s2e16345800f40f392c381ea864144f3",
    "_srcKuid_": "5abb6039352b44cbbaa7f8af4e8cfde1",
    "_top_": {
        "type": "string",
        "value": "0dp"
    },
    "areflexpropsreferenced": true,
    "canUpdateUI": true,
    "children": [
        "imgDeleteAll",
        "lblDeleteAll"
    ],
    "context": {},
    "dataDiffs": {
        "id": "flxDeleteAll"
    },
    "id": "flxDeleteAll",
    "instanceOf": "5abb6039352b44cbbaa7f8af4e8cfde1",
    "isdatareferenced": true,
    "isvisible": true,
    "kuid": "m802b44611564b88b7c0a26622431e3a",
    "layouttype": 2,
    "masterInstance": true,
    "name": "kony.ui.FlexContainer",
    "parent": "flxMasterSupportView",
    "pf": "frmLead",
    "topLevelInstanceKUID": "meff4df5e4924fccbafd7371044004a4",
    "wType": "FlexContainer"
}