{
    "_left_": {
        "type": "string",
        "value": "0dp"
    },
    "_skin_": "s2e16345800f40f392c381ea864144f3",
    "_srcKuid_": "dc060abd05284c2a8ebef9584802ea13",
    "_top_": {
        "type": "string",
        "value": "15dp"
    },
    "areflexpropsreferenced": true,
    "canUpdateUI": true,
    "children": [
        "imgSupportViewSettings",
        "lblSupportViewSettings"
    ],
    "context": {},
    "dataDiffs": {
        "id": "flxSupportViewSetting"
    },
    "id": "flxSupportViewSetting",
    "instanceOf": "dc060abd05284c2a8ebef9584802ea13",
    "isdatareferenced": true,
    "isvisible": true,
    "kuid": "mf1165794088480e860278d8bc45b1e9",
    "layouttype": 2,
    "masterInstance": true,
    "name": "kony.ui.FlexContainer",
    "parent": "flxMasterSupportView",
    "pf": "frmLead",
    "topLevelInstanceKUID": "meff4df5e4924fccbafd7371044004a4",
    "wType": "FlexContainer"
}