{
    "__parentReadjusting__": false,
    "_padding_": [
        0,
        0,
        0,
        0
    ],
    "_skin_": "sedecc5150fe4fd28b55fbf8ee7d634a",
    "_srcKuid_": "81d09a38deda461391dd6bcd1f63c963",
    "areflexpropsreferenced": true,
    "canUpdateUI": true,
    "context": {},
    "dataDiffs": {
        "id": "imgSupportViewSettings"
    },
    "id": "imgSupportViewSettings",
    "instanceOf": "81d09a38deda461391dd6bcd1f63c963",
    "isdatareferenced": true,
    "isvisible": true,
    "kuid": "m873f99b53ec45e9a36e7399e4fcc00b",
    "masterInstance": true,
    "name": "kony.ui.Image2",
    "parent": "flxSupportViewSetting",
    "pf": "frmLead",
    "topLevelInstanceKUID": "meff4df5e4924fccbafd7371044004a4",
    "wType": "Image"
}