{
    "__parentReadjusting__": false,
    "_padding_": [
        0,
        0,
        0,
        0
    ],
    "_skin_": "sedecc5150fe4fd28b55fbf8ee7d634a",
    "_srcKuid_": "113aa9a8b67e41b8840888f8e34f7279",
    "areflexpropsreferenced": true,
    "canUpdateUI": true,
    "context": {},
    "dataDiffs": {
        "id": "imgUser"
    },
    "id": "imgUser",
    "instanceOf": "113aa9a8b67e41b8840888f8e34f7279",
    "isdatareferenced": true,
    "isvisible": true,
    "kuid": "mc9869bb26a44c1ca78ea523a6600c3c",
    "masterInstance": true,
    "name": "kony.ui.Image2",
    "parent": "FlexUserDetail",
    "pf": "frmLead",
    "topLevelInstanceKUID": "meff4df5e4924fccbafd7371044004a4",
    "wType": "Image"
}