{
    "__parentReadjusting__": false,
    "_left_": {
        "type": "string",
        "value": "62dp"
    },
    "_padding_": [
        0,
        0,
        0,
        0
    ],
    "_skin_": "sbd180c7c9b740a69a448b3aa79ba464",
    "_srcKuid_": "818aad8711124cd9812fbf29f7961641",
    "areflexpropsreferenced": true,
    "canUpdateUI": true,
    "centery": {
        "type": "string",
        "value": "50%"
    },
    "context": {},
    "dataDiffs": {
        "id": "lblDeleteAll"
    },
    "id": "lblDeleteAll",
    "instanceOf": "818aad8711124cd9812fbf29f7961641",
    "isdatareferenced": true,
    "isvisible": true,
    "kuid": "m8e9da0afbf94b2bab25821eabdaa363",
    "masterInstance": true,
    "name": "kony.ui.Label",
    "parent": "flxDeleteAll",
    "pf": "frmLead",
    "topLevelInstanceKUID": "meff4df5e4924fccbafd7371044004a4",
    "wType": "Label"
}