{
    "@class": "com.kony.gen.viz.model.component.KVizImage2",
    "DNDConfig": null,
    "__parentReadjusting__": false,
    "_base64_": null,
    "_height_": {
        "type": "string",
        "value": "20dp"
    },
    "_margin_": [
        0,
        0,
        0,
        0
    ],
    "_padding_": [
        0,
        0,
        0,
        0
    ],
    "_right_": {
        "type": "string",
        "value": "9dp"
    },
    "_skin_": "sedecc5150fe4fd28b55fbf8ee7d634a",
    "_src_": "filledfilter.png",
    "_width_": {
        "type": "string",
        "value": "25dp"
    },
    "canUpdateUI": true,
    "centery": {
        "type": "string",
        "value": "52%"
    },
    "containerweight": 100,
    "context": {
        "channel": "mobile",
        "formID": "frmLeadManagement",
        "platform": "android",
        "templateType": "forms",
        "topLevelBox": null
    },
    "id": "imageFilledFilter",
    "imagescalemode": 1,
    "info": null,
    "invokedProperty": "src",
    "isvisible": false,
    "kuid": "84caefc1e0b24b8dab98ce9a7bb8d8b9",
    "name": "kony.ui.Image2",
    "parent": "flxFilter",
    "pf": "frmLeadManagement",
    "srcType": 1,
    "wType": "Image",
    "widgetalignment": 5
}