{
    "__parentReadjusting__": false,
    "_left_": {
        "type": "string",
        "value": "18dp"
    },
    "_padding_": [
        0,
        0,
        0,
        0
    ],
    "_skin_": "sedecc5150fe4fd28b55fbf8ee7d634a",
    "_srcKuid_": "3790df9ea66d434b98539ceea651dd4c",
    "areflexpropsreferenced": true,
    "canUpdateUI": true,
    "context": {},
    "dataDiffs": {
        "id": "imgAlert"
    },
    "id": "imgAlert",
    "instanceOf": "3790df9ea66d434b98539ceea651dd4c",
    "isdatareferenced": true,
    "isvisible": true,
    "kuid": "mab1ac5e36e24328acb7496ab12027b0",
    "masterInstance": true,
    "name": "kony.ui.Image2",
    "parent": "flexSettingBtn4Container",
    "pf": "frmAlert",
    "topLevelInstanceKUID": "m6842c8807274ef4ba01152c2e08ce28",
    "wType": "Image"
}