{
    "__parentReadjusting__": false,
    "_padding_": [
        0,
        0,
        0,
        0
    ],
    "_skin_": "sbd180c7c9b740a69a448b3aa79ba464",
    "_srcKuid_": "6b29bae5fc844c2aabe9d3e9d7aadbad",
    "areflexpropsreferenced": true,
    "canUpdateUI": true,
    "context": {},
    "dataDiffs": {
        "id": "lblSupportViewSettings"
    },
    "id": "lblSupportViewSettings",
    "instanceOf": "6b29bae5fc844c2aabe9d3e9d7aadbad",
    "isdatareferenced": true,
    "isvisible": true,
    "kuid": "m9a7f37038534234a43a97bb6808a31f",
    "masterInstance": true,
    "name": "kony.ui.Label",
    "parent": "flxSupportViewSetting",
    "pf": "frmAlert",
    "topLevelInstanceKUID": "m6842c8807274ef4ba01152c2e08ce28",
    "wType": "Label"
}