{
    "__parentReadjusting__": false,
    "_padding_": [
        0,
        0,
        0,
        0
    ],
    "_skin_": "scf15b1fcf3a470e97ed2a7fcf7af868",
    "_srcKuid_": "394d4f1d0d644ef0889cab5101589681",
    "canUpdateUI": true,
    "context": {},
    "dataDiffs": {
        "centerY": {
            "type": "string",
            "value": "50%"
        },
        "height": {
            "type": "string",
            "value": "40dp"
        },
        "id": "btnBurgerMenu",
        "left": {
            "type": "string",
            "value": "5dp"
        },
        "text": "",
        "width": {
            "type": "string",
            "value": "40dp"
        },
        "zIndex": 1
    },
    "id": "btnBurgerMenu",
    "ide_onClick": "AS_Button_97ad8ef202a449eca65f7afa4f13cbc4",
    "instanceOf": "394d4f1d0d644ef0889cab5101589681",
    "isvisible": true,
    "kuid": "m9af681262c540b7a4877f1d95c8e445",
    "masterInstance": true,
    "name": "kony.ui.Button",
    "parent": "flxFormHeader",
    "pf": "SupportView",
    "topLevelInstanceKUID": "mde14b2033144ca7b50f4f48c2aa792a",
    "wType": "Button"
}