{
    "__parentReadjusting__": false,
    "_padding_": [
        0,
        0,
        0,
        0
    ],
    "_skin_": "sedecc5150fe4fd28b55fbf8ee7d634a",
    "_srcKuid_": "0ef28585349843f3af69747dc3c4f281",
    "canUpdateUI": true,
    "context": {},
    "dataDiffs": {
        "centerY": {
            "type": "string",
            "value": "50%"
        },
        "height": {
            "type": "string",
            "value": "30dp"
        },
        "id": "imgStartSupportTime",
        "right": {
            "type": "string",
            "value": "10dp"
        },
        "src": "dayinactiv.png",
        "width": {
            "type": "string",
            "value": "25dp"
        },
        "zIndex": 1
    },
    "id": "imgStartSupportTime",
    "instanceOf": "0ef28585349843f3af69747dc3c4f281",
    "isvisible": false,
    "kuid": "m89ba50ed23b419ab6e0fdd8f3485b02",
    "masterInstance": true,
    "name": "kony.ui.Image2",
    "parent": "flxFormHeader",
    "pf": "SupportView",
    "topLevelInstanceKUID": "mde14b2033144ca7b50f4f48c2aa792a",
    "wType": "Image"
}