{
    "__parentReadjusting__": false,
    "_padding_": [
        0,
        0,
        0,
        0
    ],
    "_skin_": "sadec6829353436592a2ca893b646499",
    "_srcKuid_": "b9f184061a3b4da4b9a466f0d95e081f",
    "canUpdateUI": true,
    "context": {},
    "dataDiffs": {
        "centerY": {
            "type": "string",
            "value": "50%"
        },
        "height": {
            "type": "string",
            "value": "30dp"
        },
        "i18n_text": "common.label.alerts",
        "id": "lblHeaderTitle",
        "left": {
            "type": "string",
            "value": "50dp"
        },
        "right": {
            "type": "string",
            "value": "10dp"
        },
        "text": "Create Alert"
    },
    "id": "lblHeaderTitle",
    "instanceOf": "b9f184061a3b4da4b9a466f0d95e081f",
    "isvisible": true,
    "kuid": "m1731c3adc0e42d68c7fcdd1ba41c411",
    "masterInstance": true,
    "name": "kony.ui.Label",
    "parent": "flxFormHeader",
    "pf": "SupportView",
    "topLevelInstanceKUID": "mde14b2033144ca7b50f4f48c2aa792a",
    "wType": "Label"
}