{
    "__parentReadjusting__": false,
    "_padding_": [
        0,
        0,
        0,
        0
    ],
    "_skin_": "s32db7f6834b4a68ae5d8cd03505c91d",
    "_srcKuid_": "6cdf0fe7fc324f2da7d4a536cabeafb5",
    "areflexpropsreferenced": true,
    "canUpdateUI": true,
    "children": [
        "imgUser",
        "lblUserName"
    ],
    "context": {},
    "dataDiffs": {
        "id": "FlexUserDetail"
    },
    "id": "FlexUserDetail",
    "instanceOf": "6cdf0fe7fc324f2da7d4a536cabeafb5",
    "isdatareferenced": true,
    "isvisible": true,
    "kuid": "m52fb89f68ed41a2ac16c3d6a3902129",
    "layouttype": 2,
    "masterInstance": true,
    "name": "kony.ui.FlexContainer",
    "parent": "flxBurgerTop",
    "pf": "SupportView",
    "topLevelInstanceKUID": "m71ccd46eb6c40a689c2018f5a29ad49",
    "wType": "FlexContainer"
}