{
    "__parentReadjusting__": false,
    "_padding_": [
        0,
        0,
        0,
        0
    ],
    "_skin_": "sbd180c7c9b740a69a448b3aa79ba464",
    "_srcKuid_": "818aad8711124cd9812fbf29f7961641",
    "areflexpropsreferenced": true,
    "canUpdateUI": true,
    "context": {},
    "dataDiffs": {
        "id": "lblDeleteAll"
    },
    "id": "lblDeleteAll",
    "instanceOf": "818aad8711124cd9812fbf29f7961641",
    "isdatareferenced": true,
    "isvisible": true,
    "kuid": "m6dee0ffb17d4bac9b2f51289f507e62",
    "masterInstance": true,
    "name": "kony.ui.Label",
    "parent": "flxDeleteAll",
    "pf": "SupportView",
    "topLevelInstanceKUID": "m71ccd46eb6c40a689c2018f5a29ad49",
    "wType": "Label"
}