{
    "__parentReadjusting__": false,
    "_padding_": [
        0,
        0,
        0,
        0
    ],
    "_skin_": "sbd180c7c9b740a69a448b3aa79ba464",
    "_srcKuid_": "6b37e9bf61654637875b5616c8844f1f",
    "areflexpropsreferenced": true,
    "canUpdateUI": true,
    "context": {},
    "dataDiffs": {
        "id": "lblMenuName2"
    },
    "id": "lblMenuName2",
    "instanceOf": "6b37e9bf61654637875b5616c8844f1f",
    "isdatareferenced": true,
    "isvisible": true,
    "kuid": "m14d2b28165f435592fe7e0227a4ce75",
    "masterInstance": true,
    "name": "kony.ui.Label",
    "parent": "flxSettingsBtn2Container",
    "pf": "SupportView",
    "topLevelInstanceKUID": "m71ccd46eb6c40a689c2018f5a29ad49",
    "wType": "Label"
}