{
    "__parentReadjusting__": false,
    "_padding_": [
        0,
        0,
        0,
        0
    ],
    "_skin_": "sbd180c7c9b740a69a448b3aa79ba464",
    "_srcKuid_": "9b8c28e038e443d290c48e59dd825c09",
    "areflexpropsreferenced": true,
    "canUpdateUI": true,
    "context": {},
    "dataDiffs": {
        "id": "lblMenuName1"
    },
    "id": "lblMenuName1",
    "instanceOf": "9b8c28e038e443d290c48e59dd825c09",
    "isdatareferenced": true,
    "isvisible": true,
    "kuid": "mce9666a44d246d49a94d634eccafc0b",
    "masterInstance": true,
    "name": "kony.ui.Label",
    "parent": "flxSettingsBtn1Container",
    "pf": "SupportView",
    "topLevelInstanceKUID": "m71ccd46eb6c40a689c2018f5a29ad49",
    "wType": "Label"
}