{
  "background_color": "00000014",
  "bg_type": "one",
  "border_color": "000000ff",
  "border_style": "plain",
  "border_type": 0,
  "border_width": 0,
  "isDefaultSkin": false,
  "kuid": "s559708fe83141c6a033716345960cc5",
  "wType": "FlexContainer"
}