{
  "background_color": "00000021",
  "bg_type": "one",
  "border_color": "000000ff",
  "border_style": "plain",
  "border_type": 0,
  "border_width": 0,
  "isDefaultSkin": false,
  "kuid": "s41be23fb2eb489aa95aa80a52346e8d",
  "wType": "FlexContainer"
}