{
  "background_color": "ed1c24ff",
  "bg_type": "one",
  "border_color": "000000ff",
  "border_style": "plain",
  "border_type": 0,
  "border_width": 0,
  "isDefaultSkin": false,
  "kuid": "sce0dd3aea15418ead064de19210979d",
  "wType": "HBox"
}