{
  "background_color": "ebebebff",
  "bg_type": "one",
  "border_color": "000000ff",
  "border_style": "plain",
  "border_type": 0,
  "border_width": 0,
  "isDefaultSkin": false,
  "kuid": "s139b41fe04949f19830538f5a132d04",
  "wType": "FlexContainer"
}