{
  "background_color": "354a55ff",
  "bg_type": "one",
  "border_color": "000000ff",
  "border_style": "plain",
  "border_type": 0,
  "border_width": 0,
  "isDefaultSkin": false,
  "kuid": "s1a0148b61da4365bba063e5756d3dce",
  "wType": "FlexContainer"
}