{
  "background_color": "00000000",
  "bg_type": "one",
  "border_color": "000000ff",
  "border_style": "plain",
  "border_type": 0,
  "border_width": 0,
  "isDefaultSkin": false,
  "kuid": "scf93ddc046b4379b6b7ea4f3d0e2443",
  "wType": "FlexContainer"
}