{
  "background_color": "0f202eff",
  "bg_type": "one",
  "border_color": "000000ff",
  "border_style": "plain",
  "border_type": 0,
  "border_width": 0,
  "isDefaultSkin": false,
  "kuid": "sfaab4414f6a48f0ab7895532d8f6e46",
  "wType": "HBox"
}