{
  "background_color": "ffbabaff",
  "bg_type": "one",
  "border_color": "ffffffff",
  "border_style": "rc",
  "border_type": 0,
  "border_width": 1,
  "isDefaultSkin": false,
  "kuid": "sef6af3709bb4ee88809b16de0089661",
  "wType": "Popup"
}