{
  "background_color": "00000000",
  "bg_type": "one",
  "border_color": "000000ff",
  "border_style": "plain",
  "border_type": 0,
  "border_width": 0,
  "isDefaultSkin": true,
  "kuid": "s2e16345800f40f392c381ea864144f3",
  "wType": "FlexContainer"
}