{
  "background_color": "00000000",
  "bg_type": "one",
  "border_color": "000000ff",
  "border_style": "plain",
  "border_type": 0,
  "border_width": 0,
  "isDefaultSkin": true,
  "kuid": "sd0d6bbe5f58436f90253390ed9552fc",
  "wType": "HBox"
}