{
  "background_color": "ffffffff",
  "bg_type": "one",
  "border_color": "454545ff",
  "border_style": "plain",
  "border_type": 0,
  "border_width": 2,
  "font_color": "555555ff",
  "font_name": "Helvetica",
  "font_size": 140,
  "font_style": "normal",
  "font_weight": "normal",
  "isDefaultSkin": true,
  "kuid": "s543553e2be841db865e83ae2a381b0a",
  "wType": "TextArea"
}