{
  "android": {
    "font_size": 105,
    "isForked": false
  },
  "background_color": "ffffff00",
  "bg_type": "one",
  "border_color": "e3e3e3ff",
  "border_radius": 5,
  "border_style": "custom",
  "border_type": 0,
  "border_width": 1,
  "desktopweb": {
    "font_size": 105,
    "isForked": false
  },
  "fontSizeInPx": false,
  "font_color": "cfcfcfff",
  "font_name": "Helvetica",
  "font_size": 105,
  "font_style": "normal",
  "font_weight": "normal",
  "ipad": {
    "font_size": 105,
    "isForked": false
  },
  "iphone": {
    "font_size": 105,
    "isForked": false
  },
  "isDefaultSkin": false,
  "kiosk": {
    "font_size": 105,
    "isForked": false
  },
  "kuid": "s06e0b3de63d43fb861e42fc823fe399",
  "spaan": {
    "font_size": 105,
    "isForked": false
  },
  "spaandroidtablet": {
    "font_size": 105,
    "isForked": false
  },
  "spabb": {
    "font_size": 105,
    "isForked": false
  },
  "spaip": {
    "font_size": 105,
    "isForked": false
  },
  "spaipad": {
    "font_size": 105,
    "isForked": false
  },
  "spawindowstablet": {
    "font_size": 105,
    "isForked": false
  },
  "spawinphone8": {
    "font_size": 105,
    "isForked": false
  },
  "tabrcandroid": {
    "font_size": 105,
    "isForked": false
  },
  "wType": "TextField",
  "watchos": {
    "font_size": 105,
    "isForked": false
  },
  "windows8": {
    "font_size": 105,
    "isForked": false
  },
  "winphone8": {
    "font_size": 105,
    "isForked": false
  }
}